
--
-- Mise a jour version / Update
--

-- submit Button View : push style in css
-- update admin dashboard module for a best integration with index.php
-- Europe & French regulation law update
-- Blog send message on twitter error
-- Breadcrumb and bootstrap meta : little change
-- h1 heading, css adjustment
-- bug fix Removed extra ; modules.php
-- PHPMail init optimization
-- Admin : new tab based on bootstrap


 update `configuration` SET `configuration_value` = 'ClicShopping est une marque d&eacute;pos&eacute;e (INPI : 3810384) V2.41 -  All right Reserved - ' where configuration_key ='PROJECT_VERSION' LIMIT 1 ;



===================================================================================================================================================
French
===================================================================================================================================================



===================================================================================================================================================
English
===================================================================================================================================================


